3 Cox Proportional Hazard Model | Survival HW 1
…
hurr_long = read_csv("~/hurrLong.csv")

## New names:
## Rows: 29661 Columns: 17
## ── Column specification
## ──────────────────────────────────────────────────────────────────────── Delimiter: "," dbl
## (17): ...1, id, backup, age, bridgecrane, servo, gear, trashrack, slope, elevation, surv...
## ℹ Use `spec()` to retrieve the full column specification for this data. ℹ Specify the column
## types or set `show_col_types = FALSE` to quiet this message.
## • `` -> `...1`

hurr_long

## # A tibble: 29,661 × 17
##     ...1    id backup   age bridgecrane servo  gear trashrack slope elevation survive censor
##    <dbl> <dbl>  <dbl> <dbl>       <dbl> <dbl> <dbl>     <dbl> <dbl>     <dbl>   <dbl>  <dbl>
##  1     1     1      0     6           0     0     0         1     3         2       1     48
##  2     2     1      0     6           0     0     0         1     3         2       1     48
##  3     3     1      0     6           0     0     0         1     3         2       1     48
##  4     4     1      0     6           0     0     0         1     3         2       1     48
##  5     5     1      0     6           0     0     0         1     3         2       1     48
##  6     6     1      0     6           0     0     0         1     3         2       1     48
##  7     7     1      0     6           0     0     0         1     3         2       1     48
##  8     8     1      0     6           0     0     0         1     3         2       1     48
##  9     9     1      0     6           0     0     0         1     3         2       1     48
## 10    10     1      0     6           0     0     0         1     3         2       1     48
## # ℹ 29,651 more rows
## # ℹ 5 more variables: reason <dbl>, reason2 <dbl>, hour <dbl>, pumpOn <dbl>, consecHour <dbl>

hurr_long <- hurr_long %>% 
  mutate(agebin = case_when(age<6.4~0, age<8.7~1, age>=8.7~2)) %>% 
  mutate(slopebin = case_when(slope<3~0, slope>=3~1))

hurr_long <- hurr_long %>% dplyr::rename(stop = hour)

hurr_long = hurr_long %>% mutate(start = stop - 1)
hurr_long

## # A tibble: 29,661 × 20
##     ...1    id backup   age bridgecrane servo  gear trashrack slope elevation survive censor
##    <dbl> <dbl>  <dbl> <dbl>       <dbl> <dbl> <dbl>     <dbl> <dbl>     <dbl>   <dbl>  <dbl>
##  1     1     1      0     6           0     0     0         1     3         2       1     48
##  2     2     1      0     6           0     0     0         1     3         2       1     48
##  3     3     1      0     6           0     0     0         1     3         2       1     48
##  4     4     1      0     6           0     0     0         1     3         2       1     48
##  5     5     1      0     6           0     0     0         1     3         2       1     48
##  6     6     1      0     6           0     0     0         1     3         2       1     48
##  7     7     1      0     6           0     0     0         1     3         2       1     48
##  8     8     1      0     6           0     0     0         1     3         2       1     48
##  9     9     1      0     6           0     0     0         1     3         2       1     48
## 10    10     1      0     6           0     0     0         1     3         2       1     48
## # ℹ 29,651 more rows
## # ℹ 8 more variables: reason <dbl>, reason2 <dbl>, stop <dbl>, pumpOn <dbl>, consecHour <dbl>,
## #   agebin <dbl>, slopebin <dbl>, start <dbl>
…
