Chapter 2 Setup to Make Model | Survival HW 1
…
hurr_long = read_csv("~/hurrLong.csv")

## New names:
## Rows: 29661 Columns: 17
## ── Column specification
## ──────────────────────────────────────────────────────────────────────── Delimiter: "," dbl
## (17): ...1, id, backup, age, bridgecrane, servo, gear, trashrack, slope, elevation, surv...
## ℹ Use `spec()` to retrieve the full column specification for this data. ℹ Specify the column
## types or set `show_col_types = FALSE` to quiet this message.
## • `` -> `...1`

hurr_long

## # A tibble: 29,661 × 17
##     ...1    id backup   age bridgecrane servo  gear trashrack slope elevation survive censor
##    <dbl> <dbl>  <dbl> <dbl>       <dbl> <dbl> <dbl>     <dbl> <dbl>     <dbl>   <dbl>  <dbl>
##  1     1     1      0     6           0     0     0         1     3         2       1     48
##  2     2     1      0     6           0     0     0         1     3         2       1     48
##  3     3     1      0     6           0     0     0         1     3         2       1     48
##  4     4     1      0     6           0     0     0         1     3         2       1     48
##  5     5     1      0     6           0     0     0         1     3         2       1     48
##  6     6     1      0     6           0     0     0         1     3         2       1     48
##  7     7     1      0     6           0     0     0         1     3         2       1     48
##  8     8     1      0     6           0     0     0         1     3         2       1     48
##  9     9     1      0     6           0     0     0         1     3         2       1     48
## 10    10     1      0     6           0     0     0         1     3         2       1     48
## # ℹ 29,651 more rows
## # ℹ 5 more variables: reason <dbl>, reason2 <dbl>, hour <dbl>, pumpOn <dbl>, consecHour <dbl>

hurr_long <- hurr_long %>% 
  mutate(agebin = case_when(age<6.4~0, age<8.7~1, age>=8.7~2)) %>% 
  mutate(slopebin = case_when(slope<3~0, slope>=3~1))

hurr_long <- hurr_long %>% dplyr::rename(stop = hour)

hurr_long = hurr_long %>% mutate(start = stop - 1)
hurr_long

## # A tibble: 29,661 × 20
##     ...1    id backup   age bridgecrane servo  gear trashrack slope elevation survive censor
##    <dbl> <dbl>  <dbl> <dbl>       <dbl> <dbl> <dbl>     <dbl> <dbl>     <dbl>   <dbl>  <dbl>
##  1     1     1      0     6           0     0     0         1     3         2       1     48
##  2     2     1      0     6           0     0     0         1     3         2       1     48
##  3     3     1      0     6           0     0     0         1     3         2       1     48
##  4     4     1      0     6           0     0     0         1     3         2       1     48
##  5     5     1      0     6           0     0     0         1     3         2       1     48
##  6     6     1      0     6           0     0     0         1     3         2       1     48
##  7     7     1      0     6           0     0     0         1     3         2       1     48
##  8     8     1      0     6           0     0     0         1     3         2       1     48
##  9     9     1      0     6           0     0     0         1     3         2       1     48
## 10    10     1      0     6           0     0     0         1     3         2       1     48
## # ℹ 29,651 more rows
## # ℹ 8 more variables: reason <dbl>, reason2 <dbl>, stop <dbl>, pumpOn <dbl>, consecHour <dbl>,
## #   agebin <dbl>, slopebin <dbl>, start <dbl>
…
hurr_long = read_csv("~/hurrLong.csv")

## New names:
## Rows: 29661 Columns: 17
## ── Column specification
## ──────────────────────────────────────────────────────────────────────── Delimiter: "," dbl
## (17): ...1, id, backup, age, bridgecrane, servo, gear, trashrack, slope, elevation, surv...
## ℹ Use `spec()` to retrieve the full column specification for this data. ℹ Specify the column
## types or set `show_col_types = FALSE` to quiet this message.
## • `` -> `...1`

hurricane = hurricane %>% mutate(motor = ifelse(reason==2, 1, 0))
hurr_long

## # A tibble: 29,661 × 17
##     ...1    id backup   age bridgecrane servo  gear trashrack slope elevation survive censor
##    <dbl> <dbl>  <dbl> <dbl>       <dbl> <dbl> <dbl>     <dbl> <dbl>     <dbl>   <dbl>  <dbl>
##  1     1     1      0     6           0     0     0         1     3         2       1     48
##  2     2     1      0     6           0     0     0         1     3         2       1     48
##  3     3     1      0     6           0     0     0         1     3         2       1     48
##  4     4     1      0     6           0     0     0         1     3         2       1     48
##  5     5     1      0     6           0     0     0         1     3         2       1     48
##  6     6     1      0     6           0     0     0         1     3         2       1     48
##  7     7     1      0     6           0     0     0         1     3         2       1     48
##  8     8     1      0     6           0     0     0         1     3         2       1     48
##  9     9     1      0     6           0     0     0         1     3         2       1     48
## 10    10     1      0     6           0     0     0         1     3         2       1     48
## # ℹ 29,651 more rows
## # ℹ 5 more variables: reason <dbl>, reason2 <dbl>, hour <dbl>, pumpOn <dbl>, consecHour <dbl>
…
data_long <- hurricane %>%
  pivot_longer(cols = matches("^H[0-9]+$"), names_to = "Hour", values_to = "PumpStatus") %>%
  mutate(Hour = as.numeric(gsub("h", "", Hour))) # Convert H1 to H48 into numeric hour values
data_long <- data_long %>% mutate(censor = ifelse(reason == 2, 1, 0))
data_long

## # A tibble: 36,960 × 21
##    backup   age bridgecrane servo  gear trashrack slope elevation survive  hour reason reason2
##     <int> <dbl>       <int> <int> <int>     <int> <int>     <int>   <int> <int>  <int>   <int>
##  1      0     6           0     0     0         1     3         2       1    48      0       5
##  2      0     6           0     0     0         1     3         2       1    48      0       5
##  3      0     6           0     0     0         1     3         2       1    48      0       5
##  4      0     6           0     0     0         1     3         2       1    48      0       5
##  5      0     6           0     0     0         1     3         2       1    48      0       5
##  6      0     6           0     0     0         1     3         2       1    48      0       5
##  7      0     6           0     0     0         1     3         2       1    48      0       5
##  8      0     6           0     0     0         1     3         2       1    48      0       5
##  9      0     6           0     0     0         1     3         2       1    48      0       5
## 10      0     6           0     0     0         1     3         2       1    48      0       5
## # ℹ 36,950 more rows
## # ℹ 9 more variables: Index <int>, flood <dbl>, pump <int>, new_time <dbl>, diff <dbl>,
## #   motor <dbl>, Hour <dbl>, PumpStatus <int>, censor <dbl>

library(zoo)

data_long <- data_long %>%
  group_by(pump) %>% # Assuming there's an ID column for each pump
  arrange(Hour) %>%
  mutate(Running12Hours = ifelse(rollapply(PumpStatus, width = 12, FUN = all, fill = 0, align = "right") == 1, 1, 0)) %>%
  ungroup()

data_long = data_long %>% dplyr::select(-'reason2')

data_long %>% arrange(desc(pump))

## # A tibble: 36,960 × 21
##    backup   age bridgecrane servo  gear trashrack slope elevation survive  hour reason Index
##     <int> <dbl>       <int> <int> <int>     <int> <int>     <int>   <int> <int>  <int> <int>
##  1      1   8.5           0     1     1         1     3         2       0    25      4   770
##  2      1   8.5           0     1     1         1     3         2       0    25      4   770
##  3      1   8.5           0     1     1         1     3         2       0    25      4   770
##  4      1   8.5           0     1     1         1     3         2       0    25      4   770
##  5      1   8.5           0     1     1         1     3         2       0    25      4   770
##  6      1   8.5           0     1     1         1     3         2       0    25      4   770
##  7      1   8.5           0     1     1         1     3         2       0    25      4   770
##  8      1   8.5           0     1     1         1     3         2       0    25      4   770
##  9      1   8.5           0     1     1         1     3         2       0    25      4   770
## 10      1   8.5           0     1     1         1     3         2       0    25      4   770
## # ℹ 36,950 more rows
## # ℹ 9 more variables: flood <dbl>, pump <int>, new_time <dbl>, diff <dbl>, motor <dbl>,
## #   Hour <dbl>, PumpStatus <int>, censor <dbl>, Running12Hours <dbl>

data_long = data_long %>% dplyr::select(-c('flood', 'diff'))

data_long = data_long %>% filter(Hour <= hour)
data_long = data_long %>% mutate(reason = ifelse(Hour == hour, reason, 0))

data_long %>% arrange(desc(pump))

## # A tibble: 29,661 × 19
##    backup   age bridgecrane servo  gear trashrack slope elevation survive  hour reason Index
##     <int> <dbl>       <int> <int> <int>     <int> <int>     <int>   <int> <int>  <dbl> <int>
##  1      1   8.5           0     1     1         1     3         2       0    25      0   770
##  2      1   8.5           0     1     1         1     3         2       0    25      0   770
##  3      1   8.5           0     1     1         1     3         2       0    25      0   770
##  4      1   8.5           0     1     1         1     3         2       0    25      0   770
##  5      1   8.5           0     1     1         1     3         2       0    25      0   770
##  6      1   8.5           0     1     1         1     3         2       0    25      0   770
##  7      1   8.5           0     1     1         1     3         2       0    25      0   770
##  8      1   8.5           0     1     1         1     3         2       0    25      0   770
##  9      1   8.5           0     1     1         1     3         2       0    25      0   770
## 10      1   8.5           0     1     1         1     3         2       0    25      0   770
## # ℹ 29,651 more rows
## # ℹ 7 more variables: pump <int>, new_time <dbl>, motor <dbl>, Hour <dbl>, PumpStatus <int>,
## #   censor <dbl>, Running12Hours <dbl>
…
